{
	"show_video": true,
	"use_dropbox": true,
	"dropbox_key": "z6aghja0ffc35f4",
	"dropbox_secret": "4ha3e7f14uwggvf",
	"dropbox_base_path": "Apps/lancel_home",
	"min_upload_seconds": 3.0,
	"min_motion_frames": 8,
	"camera_warmup_time": 2.5,
	"delta_thresh": 5,
	"resolution": [640, 480],
	"fps": 16,
	"min_area": 5000
}
